sample,ue_cons,oe_cons,te_cons,ue_ncons,oe_ncons,te_ncons
10,0.9,0.05,0.333333333333,0.9,0.08,0.353333333333
60,0.72,0.01,0.246666666667,0.7,0.02,0.246666666667
110,0.7,0.0,0.233333333333,0.44,0.0,0.146666666667
160,0.64,0.0,0.213333333333,0.42,0.01,0.146666666667
210,0.6,0.0,0.2,0.46,0.0,0.153333333333
260,0.58,0.0,0.193333333333,0.34,0.0,0.113333333333
310,0.58,0.0,0.193333333333,0.2,0.0,0.0666666666667
360,0.6,0.0,0.2,0.16,0.0,0.0533333333333
410,0.56,0.0,0.186666666667,0.18,0.01,0.0666666666667
460,0.58,0.0,0.193333333333,0.12,0.0,0.04
510,0.58,0.0,0.193333333333,0.08,0.0,0.0266666666667
560,0.58,0.0,0.193333333333,0.06,0.0,0.02
610,0.56,0.0,0.186666666667,0.04,0.0,0.0133333333333
660,0.58,0.0,0.193333333333,0.02,0.0,0.00666666666667
710,0.42,0.0,0.14,0.06,0.0,0.02
760,0.46,0.0,0.153333333333,0.02,0.0,0.00666666666667
810,0.52,0.0,0.173333333333,0.0,0.0,0.0
860,0.42,0.0,0.14,0.02,0.0,0.00666666666667
910,0.48,0.0,0.16,0.0,0.0,0.0
960,0.4,0.0,0.133333333333,0.02,0.0,0.00666666666667
1010,0.4,0.0,0.133333333333,0.0,0.0,0.0
1060,0.42,0.0,0.14,0.0,0.0,0.0
1110,0.4,0.0,0.133333333333,0.0,0.0,0.0
1160,0.4,0.0,0.133333333333,0.0,0.0,0.0
1210,0.4,0.0,0.133333333333,0.0,0.0,0.0
1260,0.4,0.0,0.133333333333,0.0,0.0,0.0
1310,0.4,0.0,0.133333333333,0.0,0.0,0.0
1360,0.4,0.0,0.133333333333,0.0,0.0,0.0
1410,0.4,0.0,0.133333333333,0.0,0.0,0.0
1460,0.4,0.0,0.133333333333,0.0,0.0,0.0
1510,0.4,0.0,0.133333333333,0.0,0.0,0.0
1560,0.4,0.0,0.133333333333,0.0,0.0,0.0
1610,0.4,0.0,0.133333333333,0.0,0.0,0.0
1660,0.4,0.0,0.133333333333,0.0,0.0,0.0
1710,0.4,0.0,0.133333333333,0.0,0.0,0.0
1760,0.4,0.0,0.133333333333,0.0,0.0,0.0
1810,0.4,0.0,0.133333333333,0.0,0.0,0.0
1860,0.4,0.0,0.133333333333,0.0,0.0,0.0
1910,0.38,0.0,0.126666666667,0.0,0.0,0.0
1960,0.4,0.0,0.133333333333,0.0,0.0,0.0
2010,0.4,0.0,0.133333333333,0.0,0.0,0.0
2060,0.4,0.0,0.133333333333,0.0,0.0,0.0
2110,0.4,0.0,0.133333333333,0.0,0.0,0.0
2160,0.38,0.0,0.126666666667,0.0,0.0,0.0
2210,0.36,0.0,0.12,0.0,0.0,0.0
2260,0.36,0.0,0.12,0.0,0.0,0.0
2310,0.4,0.0,0.133333333333,0.0,0.0,0.0
2360,0.38,0.0,0.126666666667,0.0,0.0,0.0
2410,0.36,0.0,0.12,0.0,0.0,0.0
2460,0.34,0.0,0.113333333333,0.0,0.0,0.0
2510,0.36,0.0,0.12,0.0,0.0,0.0
2560,0.3,0.0,0.1,0.0,0.0,0.0
2610,0.36,0.0,0.12,0.0,0.0,0.0
2660,0.34,0.0,0.113333333333,0.0,0.0,0.0
2710,0.34,0.0,0.113333333333,0.0,0.0,0.0
2760,0.3,0.0,0.1,0.0,0.0,0.0
2810,0.3,0.0,0.1,0.0,0.0,0.0
2860,0.32,0.0,0.106666666667,0.0,0.0,0.0
2910,0.32,0.0,0.106666666667,0.0,0.0,0.0
2960,0.3,0.0,0.1,0.0,0.0,0.0
3010,0.28,0.0,0.0933333333333,0.0,0.0,0.0
3060,0.28,0.0,0.0933333333333,0.0,0.0,0.0
3110,0.26,0.0,0.0866666666667,0.0,0.0,0.0
3160,0.24,0.0,0.08,0.0,0.0,0.0
3210,0.26,0.0,0.0866666666667,0.0,0.0,0.0
3260,0.24,0.0,0.08,0.0,0.0,0.0
3310,0.28,0.0,0.0933333333333,0.0,0.0,0.0
3360,0.26,0.0,0.0866666666667,0.0,0.0,0.0
3410,0.28,0.0,0.0933333333333,0.0,0.0,0.0
3460,0.24,0.0,0.08,0.0,0.0,0.0
3510,0.28,0.0,0.0933333333333,0.0,0.0,0.0
3560,0.22,0.0,0.0733333333333,0.0,0.0,0.0
3610,0.26,0.0,0.0866666666667,0.0,0.0,0.0
3660,0.22,0.0,0.0733333333333,0.0,0.0,0.0
3710,0.26,0.0,0.0866666666667,0.0,0.0,0.0
3760,0.24,0.0,0.08,0.0,0.0,0.0
3810,0.22,0.0,0.0733333333333,0.0,0.0,0.0
3860,0.22,0.0,0.0733333333333,0.0,0.0,0.0
3910,0.22,0.0,0.0733333333333,0.0,0.0,0.0
3960,0.2,0.0,0.0666666666667,0.0,0.0,0.0
4010,0.24,0.0,0.08,0.0,0.0,0.0
4060,0.2,0.0,0.0666666666667,0.0,0.0,0.0
4110,0.24,0.0,0.08,0.0,0.0,0.0
4160,0.2,0.0,0.0666666666667,0.0,0.0,0.0
4210,0.26,0.0,0.0866666666667,0.0,0.0,0.0
4260,0.2,0.0,0.0666666666667,0.0,0.0,0.0
4310,0.2,0.0,0.0666666666667,0.0,0.0,0.0
4360,0.2,0.0,0.0666666666667,0.0,0.0,0.0
4410,0.2,0.0,0.0666666666667,0.0,0.0,0.0
4460,0.22,0.0,0.0733333333333,0.0,0.0,0.0
4510,0.2,0.0,0.0666666666667,0.0,0.0,0.0
4560,0.2,0.0,0.0666666666667,0.0,0.0,0.0
4610,0.2,0.0,0.0666666666667,0.0,0.0,0.0
4660,0.2,0.0,0.0666666666667,0.0,0.0,0.0
4710,0.2,0.0,0.0666666666667,0.0,0.0,0.0
4760,0.2,0.0,0.0666666666667,0.0,0.0,0.0
4810,0.2,0.0,0.0666666666667,0.0,0.0,0.0
4860,0.2,0.0,0.0666666666667,0.0,0.0,0.0
4910,0.2,0.0,0.0666666666667,0.0,0.0,0.0
4960,0.2,0.0,0.0666666666667,0.0,0.0,0.0
