sample,ue_cons,oe_cons,te_cons,ue_ncons,oe_ncons,te_ncons
500,0.381428571429,2.08533846647e-05,0.000234869739479,0.38,2.72698107154e-05,0.000240480961924
750,0.307142857143,1.44369586141e-05,0.000186773547094,0.307142857143,1.68431183831e-05,0.000189178356713
1000,0.27,3.20821302534e-06,0.000154709418838,0.27,4.01026628168e-06,0.000155511022044
1250,0.242857142857,5.61437279435e-06,0.000141883767535,0.242857142857,9.62463907603e-06,0.000145891783567
1500,0.228571428571,1.60410651267e-06,0.000129859719439,0.228571428571,2.40615976901e-06,0.000130661322645
1750,0.202857142857,8.02053256336e-07,0.000114629258517,0.202857142857,8.02053256336e-07,0.000114629258517
2000,0.19,1.60410651267e-06,0.000108216432866,0.19,1.60410651267e-06,0.000108216432866
2250,0.174285714286,1.60410651267e-06,9.93987975952e-05,0.174285714286,2.40615976901e-06,0.000100200400802
2500,0.165714285714,8.02053256336e-07,9.37875751503e-05,0.165714285714,1.60410651267e-06,9.45891783567e-05
2750,0.155714285714,1.60410651267e-06,8.89779559118e-05,0.155714285714,1.60410651267e-06,8.89779559118e-05
3000,0.138571428571,8.02053256336e-07,7.85571142285e-05,0.138571428571,8.02053256336e-07,7.85571142285e-05
3250,0.117142857143,1.60410651267e-06,6.73346693387e-05,0.117142857143,1.60410651267e-06,6.73346693387e-05
3500,0.135714285714,0.0,7.61523046092e-05,0.135714285714,0.0,7.61523046092e-05
3750,0.118571428571,0.0,6.65330661323e-05,0.118571428571,8.02053256336e-07,6.73346693387e-05
4000,0.118571428571,0.0,6.65330661323e-05,0.118571428571,0.0,6.65330661323e-05
4250,0.112857142857,8.02053256336e-07,6.4128256513e-05,0.112857142857,8.02053256336e-07,6.4128256513e-05
4500,0.115714285714,0.0,6.49298597194e-05,0.115714285714,8.02053256336e-07,6.57314629259e-05
4750,0.0985714285714,1.60410651267e-06,5.69138276553e-05,0.0985714285714,2.40615976901e-06,5.77154308617e-05
5000,0.111428571429,0.0,6.25250501002e-05,0.111428571429,8.02053256336e-07,6.33266533066e-05
5250,0.0971428571429,8.02053256336e-07,5.53106212425e-05,0.0971428571429,8.02053256336e-07,5.53106212425e-05
5500,0.0928571428571,0.0,5.21042084168e-05,0.0928571428571,0.0,5.21042084168e-05
5750,0.0914285714286,0.0,5.13026052104e-05,0.0914285714286,0.0,5.13026052104e-05
6000,0.09,8.02053256336e-07,5.13026052104e-05,0.09,8.02053256336e-07,5.13026052104e-05
6250,0.0871428571429,0.0,4.88977955912e-05,0.0871428571429,8.02053256336e-07,4.96993987976e-05
6500,0.0857142857143,8.02053256336e-07,4.88977955912e-05,0.0857142857143,8.02053256336e-07,4.88977955912e-05
6750,0.0757142857143,0.0,4.24849699399e-05,0.0757142857143,0.0,4.24849699399e-05
7000,0.0757142857143,8.02053256336e-07,4.32865731463e-05,0.0757142857143,8.02053256336e-07,4.32865731463e-05
7250,0.0742857142857,0.0,4.16833667335e-05,0.0742857142857,0.0,4.16833667335e-05
7500,0.0685714285714,0.0,3.84769539078e-05,0.0685714285714,0.0,3.84769539078e-05
7750,0.0642857142857,8.02053256336e-07,3.6873747495e-05,0.0642857142857,8.02053256336e-07,3.6873747495e-05
8000,0.0671428571429,0.0,3.76753507014e-05,0.0671428571429,0.0,3.76753507014e-05
8250,0.0628571428571,0.0,3.52705410822e-05,0.0628571428571,0.0,3.52705410822e-05
8500,0.0614285714286,0.0,3.44689378758e-05,0.0614285714286,0.0,3.44689378758e-05
8750,0.06,0.0,3.36673346693e-05,0.06,0.0,3.36673346693e-05
9000,0.0614285714286,0.0,3.44689378758e-05,0.0614285714286,0.0,3.44689378758e-05
9250,0.0628571428571,0.0,3.52705410822e-05,0.0628571428571,0.0,3.52705410822e-05
9500,0.0514285714286,0.0,2.88577154309e-05,0.0514285714286,0.0,2.88577154309e-05
9750,0.0557142857143,0.0,3.12625250501e-05,0.0557142857143,0.0,3.12625250501e-05
10000,0.0414285714286,8.02053256336e-07,2.40480961924e-05,0.0414285714286,8.02053256336e-07,2.40480961924e-05
