Number of vertices: 500
Maximum degree: 1
Constant value: 0.01
A size: 2
Last subestimate error non-conservative: 0.292063492063
Last overestimate error non-conservative: 0.00261534883348
Last total error non-conservative: 0.00276152304609
Last subestimate error conservative: 0.325396825397
Last overestimate error conservative: 0.000686519043685
Last total error conservative: 0.000850501002004
Probability distribution of the vertices:
0 given []
0.69 0.31


1 given []
0.11 0.89


2 given []
0.59 0.41


3 given []
0.42 0.58


4 given []
0.49 0.51


5 given []
0.88 0.12


6 given []
0.48 0.52


7 given []
0.72 0.28


8 given []
0.91 0.09


9 given []
0.60 0.40


10 given []
0.76 0.24


11 given []
0.69 0.31


12 given [382]
0.71 0.29
0.27 0.73


13 given []
0.07 0.93


14 given []
0.31 0.69


15 given []
0.08 0.92


16 given []
0.25 0.75


17 given []
0.08 0.92


18 given []
0.57 0.43


19 given []
0.73 0.27


20 given []
0.88 0.12


21 given [464]
0.78 0.22
0.68 0.32


22 given []
0.04 0.96


23 given [77]
0.95 0.05
0.92 0.08


24 given []
0.09 0.91


25 given [378]
0.18 0.82
0.06 0.94


26 given [446]
0.83 0.17
0.39 0.61


27 given []
0.84 0.16


28 given []
0.88 0.12


29 given []
0.94 0.06


30 given []
0.90 0.10


31 given []
0.71 0.29


32 given []
0.90 0.10


33 given []
0.40 0.60


34 given []
0.55 0.45


35 given [252]
0.84 0.16
0.06 0.94


36 given []
0.94 0.06


37 given []
0.87 0.13


38 given []
0.23 0.77


39 given [208]
0.17 0.83
0.34 0.66


40 given []
0.62 0.38


41 given []
0.67 0.33


42 given []
0.39 0.61


43 given []
0.43 0.57


44 given [142]
0.31 0.69
0.66 0.34


45 given []
0.71 0.29


46 given []
0.48 0.52


47 given []
0.82 0.18


48 given []
0.91 0.09


49 given [57]
0.55 0.45
0.36 0.64


50 given []
0.59 0.41


51 given []
0.63 0.37


52 given []
0.14 0.86


53 given []
0.78 0.22


54 given []
0.04 0.96


55 given []
0.43 0.57


56 given []
0.99 0.01


57 given []
0.07 0.93


58 given []
0.56 0.44


59 given []
0.59 0.41


60 given [467]
0.93 0.07
0.27 0.73


61 given [115]
1.00 0.00
0.38 0.62


62 given [347]
0.67 0.33
0.19 0.81


63 given []
0.06 0.94


64 given []
0.92 0.08


65 given [485]
0.25 0.75
0.89 0.11


66 given []
0.17 0.83


67 given []
0.14 0.86


68 given []
0.44 0.56


69 given []
0.69 0.31


70 given []
0.55 0.45


71 given [75]
0.34 0.66
0.48 0.52


72 given []
0.25 0.75


73 given []
0.40 0.60


74 given []
0.01 0.99


75 given []
0.97 0.03


76 given []
0.22 0.78


77 given []
0.83 0.17


78 given []
0.30 0.70


79 given []
0.41 0.59


80 given [459]
0.91 0.09
0.72 0.28


81 given [334]
0.94 0.06
0.82 0.18


82 given [345]
0.69 0.31
0.07 0.93


83 given []
0.36 0.64


84 given []
0.71 0.29


85 given []
0.11 0.89


86 given [148]
0.21 0.79
0.86 0.14


87 given [472]
0.54 0.46
0.59 0.41


88 given [303]
0.17 0.83
0.30 0.70


89 given [122]
0.66 0.34
0.76 0.24


90 given []
0.90 0.10


91 given []
0.17 0.83


92 given []
0.88 0.12


93 given []
0.12 0.88


94 given []
0.13 0.87


95 given [255]
0.11 0.89
0.96 0.04


96 given []
0.13 0.87


97 given []
0.71 0.29


98 given [331]
0.40 0.60
0.72 0.28


99 given []
0.75 0.25


100 given []
0.39 0.61


101 given []
0.46 0.54


102 given []
0.74 0.26


103 given []
0.58 0.42


104 given []
0.90 0.10


105 given []
0.25 0.75


106 given []
0.66 0.34


107 given []
0.59 0.41


108 given [327]
0.52 0.48
0.39 0.61


109 given []
0.87 0.13


110 given []
0.67 0.33


111 given []
0.25 0.75


112 given []
0.35 0.65


113 given []
0.50 0.50


114 given []
0.91 0.09


115 given []
0.80 0.20


116 given []
0.45 0.55


117 given [495]
0.06 0.94
0.36 0.64


118 given []
0.23 0.77


119 given []
0.26 0.74


120 given []
0.19 0.81


121 given []
0.03 0.97


122 given []
0.62 0.38


123 given [457]
0.63 0.37
0.27 0.73


124 given []
0.03 0.97


125 given []
0.48 0.52


126 given []
0.04 0.96


127 given [418]
0.37 0.63
0.62 0.38


128 given []
0.47 0.53


129 given []
0.51 0.49


130 given []
0.05 0.95


131 given [310]
0.21 0.79
0.78 0.22


132 given []
0.77 0.23


133 given [365]
0.57 0.43
0.77 0.23


134 given []
0.82 0.18


135 given []
0.60 0.40


136 given []
0.46 0.54


137 given []
0.63 0.37


138 given []
0.13 0.87


139 given []
0.03 0.97


140 given []
0.49 0.51


141 given []
0.16 0.84


142 given []
0.88 0.12


143 given []
0.44 0.56


144 given []
0.58 0.42


145 given []
0.67 0.33


146 given [405]
0.66 0.34
0.22 0.78


147 given []
0.68 0.32


148 given []
0.53 0.47


149 given []
0.04 0.96


150 given []
0.85 0.15


151 given []
0.50 0.50


152 given []
0.23 0.77


153 given []
0.24 0.76


154 given []
0.73 0.27


155 given []
0.60 0.40


156 given []
0.07 0.93


157 given []
0.26 0.74


158 given [245]
0.54 0.46
0.13 0.87


159 given [282]
0.41 0.59
0.98 0.02


160 given []
0.12 0.88


161 given []
0.68 0.32


162 given []
0.72 0.28


163 given []
0.48 0.52


164 given []
0.29 0.71


165 given []
0.61 0.39


166 given []
0.13 0.87


167 given []
0.60 0.40


168 given []
0.43 0.57


169 given []
0.55 0.45


170 given [448]
0.34 0.66
0.52 0.48


171 given []
0.39 0.61


172 given []
0.27 0.73


173 given []
0.23 0.77


174 given []
0.32 0.68


175 given []
0.99 0.01


176 given []
0.14 0.86


177 given []
0.83 0.17


178 given []
0.29 0.71


179 given []
0.42 0.58


180 given []
0.50 0.50


181 given []
0.76 0.24


182 given []
0.59 0.41


183 given []
0.70 0.30


184 given [297]
0.37 0.63
0.72 0.28


185 given [399]
0.13 0.87
0.68 0.32


186 given []
0.70 0.30


187 given []
0.71 0.29


188 given []
0.49 0.51


189 given []
0.85 0.15


190 given []
0.68 0.32


191 given []
0.48 0.52


192 given []
0.00 1.00


193 given []
0.31 0.69


194 given []
0.43 0.57


195 given []
0.99 0.01


196 given []
0.49 0.51


197 given []
0.20 0.80


198 given []
0.04 0.96


199 given []
0.16 0.84


200 given []
0.88 0.12


201 given []
0.52 0.48


202 given []
0.40 0.60


203 given [211]
1.00 0.00
0.01 0.99


204 given []
0.50 0.50


205 given [286]
0.10 0.90
0.54 0.46


206 given []
0.19 0.81


207 given []
0.37 0.63


208 given []
0.69 0.31


209 given []
0.24 0.76


210 given [431]
0.24 0.76
0.16 0.84


211 given []
0.15 0.85


212 given []
0.56 0.44


213 given []
0.82 0.18


214 given []
0.73 0.27


215 given []
0.91 0.09


216 given []
0.29 0.71


217 given []
0.54 0.46


218 given []
0.87 0.13


219 given [263]
0.70 0.30
0.93 0.07


220 given []
0.23 0.77


221 given []
0.83 0.17


222 given []
0.91 0.09


223 given []
0.11 0.89


224 given []
0.12 0.88


225 given [309]
1.00 0.00
0.25 0.75


226 given []
0.87 0.13


227 given []
0.29 0.71


228 given []
0.97 0.03


229 given []
0.03 0.97


230 given [477]
0.79 0.21
0.09 0.91


231 given []
0.08 0.92


232 given []
0.00 1.00


233 given []
0.83 0.17


234 given []
0.02 0.98


235 given []
0.09 0.91


236 given []
0.02 0.98


237 given []
0.62 0.38


238 given []
0.82 0.18


239 given []
0.72 0.28


240 given [438]
0.08 0.92
0.73 0.27


241 given []
0.89 0.11


242 given [426]
0.85 0.15
0.64 0.36


243 given []
0.20 0.80


244 given []
0.45 0.55


245 given []
0.83 0.17


246 given []
0.74 0.26


247 given []
0.25 0.75


248 given []
0.61 0.39


249 given [483]
0.91 0.09
0.15 0.85


250 given []
0.51 0.49


251 given []
0.13 0.87


252 given []
0.40 0.60


253 given []
0.42 0.58


254 given [436]
0.61 0.39
0.09 0.91


255 given []
0.16 0.84


256 given []
0.48 0.52


257 given [420]
0.86 0.14
0.77 0.23


258 given [324]
0.13 0.87
0.03 0.97


259 given [469]
0.99 0.01
0.43 0.57


260 given []
0.20 0.80


261 given []
0.62 0.38


262 given []
0.51 0.49


263 given []
0.87 0.13


264 given []
0.30 0.70


265 given []
0.94 0.06


266 given []
0.56 0.44


267 given []
0.54 0.46


268 given []
0.39 0.61


269 given []
0.99 0.01


270 given []
0.50 0.50


271 given []
0.93 0.07


272 given [460]
0.70 0.30
0.51 0.49


273 given []
0.93 0.07


274 given []
0.17 0.83


275 given []
0.96 0.04


276 given []
0.24 0.76


277 given []
0.35 0.65


278 given []
0.43 0.57


279 given []
0.53 0.47


280 given []
0.51 0.49


281 given []
0.66 0.34


282 given []
0.69 0.31


283 given [411]
0.44 0.56
0.44 0.56


284 given []
0.46 0.54


285 given []
0.68 0.32


286 given []
0.81 0.19


287 given []
0.02 0.98


288 given []
0.62 0.38


289 given []
0.66 0.34


290 given []
0.21 0.79


291 given []
0.32 0.68


292 given []
0.72 0.28


293 given []
0.36 0.64


294 given []
0.70 0.30


295 given []
0.46 0.54


296 given []
0.93 0.07


297 given []
0.07 0.93


298 given []
0.84 0.16


299 given []
0.48 0.52


300 given [498]
0.72 0.28
0.79 0.21


301 given []
0.34 0.66


302 given []
0.34 0.66


303 given []
0.71 0.29


304 given [369]
0.81 0.19
0.08 0.92


305 given []
0.72 0.28


306 given []
0.81 0.19


307 given [442]
0.79 0.21
0.85 0.15


308 given []
0.11 0.89


309 given []
0.76 0.24


310 given []
0.53 0.47


311 given []
0.41 0.59


312 given []
0.47 0.53


313 given []
0.30 0.70


314 given []
0.78 0.22


315 given []
0.03 0.97


316 given []
0.10 0.90


317 given []
0.55 0.45


318 given []
0.74 0.26


319 given []
0.42 0.58


320 given []
0.67 0.33


321 given [454]
0.34 0.66
0.56 0.44


322 given []
0.25 0.75


323 given []
0.31 0.69


324 given []
0.59 0.41


325 given []
0.22 0.78


326 given []
0.15 0.85


327 given []
0.08 0.92


328 given []
0.84 0.16


329 given []
0.13 0.87


330 given []
0.99 0.01


331 given []
0.34 0.66


332 given []
0.82 0.18


333 given []
0.06 0.94


334 given []
0.13 0.87


335 given []
0.43 0.57


336 given []
0.06 0.94


337 given []
0.60 0.40


338 given [484]
0.08 0.92
0.11 0.89


339 given []
0.69 0.31


340 given []
0.42 0.58


341 given []
0.97 0.03


342 given []
0.73 0.27


343 given []
0.70 0.30


344 given [373]
0.78 0.22
0.78 0.22


345 given []
0.70 0.30


346 given [421]
0.67 0.33
0.49 0.51


347 given []
0.88 0.12


348 given []
0.03 0.97


349 given []
0.00 1.00


350 given []
0.42 0.58


351 given []
0.65 0.35


352 given []
0.36 0.64


353 given [354]
0.52 0.48
0.91 0.09


354 given []
0.54 0.46


355 given []
0.37 0.63


356 given []
0.41 0.59


357 given []
0.73 0.27


358 given []
0.30 0.70


359 given []
0.85 0.15


360 given []
0.60 0.40


361 given []
0.69 0.31


362 given [425]
0.53 0.47
0.88 0.12


363 given []
0.30 0.70


364 given []
0.31 0.69


365 given []
0.22 0.78


366 given []
0.04 0.96


367 given []
0.18 0.82


368 given []
0.90 0.10


369 given []
0.77 0.23


370 given []
0.98 0.02


371 given []
0.48 0.52


372 given [385]
0.04 0.96
0.82 0.18


373 given []
0.34 0.66


374 given []
0.83 0.17


375 given []
0.51 0.49


376 given []
0.01 0.99


377 given []
0.15 0.85


378 given []
0.30 0.70


379 given []
0.13 0.87


380 given []
0.38 0.62


381 given []
0.21 0.79


382 given []
0.89 0.11


383 given []
0.53 0.47


384 given []
0.99 0.01


385 given []
0.64 0.36


386 given []
0.92 0.08


387 given []
0.24 0.76


388 given []
0.03 0.97


389 given []
0.66 0.34


390 given []
0.54 0.46


391 given [394]
0.34 0.66
0.70 0.30


392 given []
0.18 0.82


393 given []
0.77 0.23


394 given []
0.71 0.29


395 given []
0.45 0.55


396 given []
0.37 0.63


397 given []
0.98 0.02


398 given []
0.04 0.96


399 given []
0.47 0.53


400 given []
0.66 0.34


401 given []
0.28 0.72


402 given []
0.65 0.35


403 given []
0.34 0.66


404 given [417]
0.85 0.15
0.55 0.45


405 given []
0.75 0.25


406 given []
0.87 0.13


407 given []
0.54 0.46


408 given []
0.89 0.11


409 given []
0.24 0.76


410 given []
0.46 0.54


411 given []
0.38 0.62


412 given []
0.01 0.99


413 given []
0.41 0.59


414 given []
0.27 0.73


415 given []
0.67 0.33


416 given []
0.69 0.31


417 given []
0.17 0.83


418 given []
0.55 0.45


419 given []
0.23 0.77


420 given []
0.55 0.45


421 given []
0.99 0.01


422 given []
0.89 0.11


423 given []
0.11 0.89


424 given []
0.47 0.53


425 given []
0.52 0.48


426 given []
0.87 0.13


427 given []
0.08 0.92


428 given []
0.05 0.95


429 given []
0.59 0.41


430 given []
0.24 0.76


431 given []
0.74 0.26


432 given []
0.52 0.48


433 given []
0.19 0.81


434 given []
0.03 0.97


435 given []
0.12 0.88


436 given []
0.58 0.42


437 given []
0.32 0.68


438 given []
0.83 0.17


439 given []
0.01 0.99


440 given [451]
0.12 0.88
0.94 0.06


441 given []
0.07 0.93


442 given []
0.83 0.17


443 given []
0.99 0.01


444 given []
0.91 0.09


445 given []
0.64 0.36


446 given []
0.27 0.73


447 given []
0.16 0.84


448 given []
0.73 0.27


449 given []
0.14 0.86


450 given []
0.95 0.05


451 given []
0.35 0.65


452 given []
0.30 0.70


453 given []
0.14 0.86


454 given []
0.92 0.08


455 given []
0.15 0.85


456 given []
0.96 0.04


457 given []
0.11 0.89


458 given []
0.18 0.82


459 given []
0.32 0.68


460 given []
0.89 0.11


461 given []
0.05 0.95


462 given []
0.65 0.35


463 given []
0.91 0.09


464 given []
0.15 0.85


465 given []
0.84 0.16


466 given []
0.15 0.85


467 given []
0.17 0.83


468 given []
0.24 0.76


469 given []
0.45 0.55


470 given []
0.22 0.78


471 given []
0.20 0.80


472 given []
0.43 0.57


473 given []
0.08 0.92


474 given []
0.11 0.89


475 given []
0.68 0.32


476 given []
0.82 0.18


477 given []
0.63 0.37


478 given []
0.52 0.48


479 given []
0.25 0.75


480 given []
0.24 0.76


481 given []
0.25 0.75


482 given []
0.70 0.30


483 given []
0.97 0.03


484 given []
0.34 0.66


485 given []
0.88 0.12


486 given []
0.70 0.30


487 given []
0.06 0.94


488 given []
0.32 0.68


489 given []
0.16 0.84


490 given []
0.48 0.52


491 given []
0.35 0.65


492 given []
0.54 0.46


493 given []
0.17 0.83


494 given []
0.51 0.49


495 given []
0.63 0.37


496 given []
0.59 0.41


497 given []
0.46 0.54


498 given []
0.40 0.60


499 given []
0.51 0.49


