sample,ue,oe,te
10,0.958333333333,0.0833333333333,0.153333333333
60,0.970833333333,0.0844202898551,0.155333333333
110,0.8,0.0695652173913,0.128
160,0.6125,0.0532608695652,0.098
210,0.495833333333,0.043115942029,0.0793333333333
260,0.445833333333,0.038768115942,0.0713333333333
310,0.408333333333,0.0355072463768,0.0653333333333
360,0.333333333333,0.0289855072464,0.0533333333333
410,0.2875,0.025,0.046
460,0.204166666667,0.0177536231884,0.0326666666667
510,0.220833333333,0.0192028985507,0.0353333333333
560,0.179166666667,0.0155797101449,0.0286666666667
610,0.241666666667,0.0210144927536,0.0386666666667
660,0.1625,0.0141304347826,0.026
710,0.1375,0.0119565217391,0.022
760,0.133333333333,0.0115942028986,0.0213333333333
810,0.129166666667,0.011231884058,0.0206666666667
860,0.1125,0.00978260869565,0.018
910,0.0958333333333,0.00833333333333,0.0153333333333
960,0.1125,0.00978260869565,0.018
1010,0.0791666666667,0.00688405797101,0.0126666666667
1060,0.104166666667,0.00905797101449,0.0166666666667
1110,0.120833333333,0.0105072463768,0.0193333333333
1160,0.116666666667,0.0101449275362,0.0186666666667
1210,0.0833333333333,0.00724637681159,0.0133333333333
1260,0.0833333333333,0.00724637681159,0.0133333333333
1310,0.0666666666667,0.00579710144928,0.0106666666667
1360,0.0708333333333,0.00615942028986,0.0113333333333
1410,0.0958333333333,0.00833333333333,0.0153333333333
1460,0.0416666666667,0.0036231884058,0.00666666666667
1510,0.0375,0.00326086956522,0.006
1560,0.0125,0.00108695652174,0.002
1610,0.0375,0.00326086956522,0.006
1660,0.0583333333333,0.00507246376812,0.00933333333333
1710,0.0416666666667,0.0036231884058,0.00666666666667
1760,0.0375,0.00326086956522,0.006
1810,0.0333333333333,0.00289855072464,0.00533333333333
1860,0.0208333333333,0.0018115942029,0.00333333333333
1910,0.0416666666667,0.0036231884058,0.00666666666667
1960,0.0416666666667,0.0036231884058,0.00666666666667
2010,0.0291666666667,0.00253623188406,0.00466666666667
2060,0.0125,0.00108695652174,0.002
2110,0.0291666666667,0.00253623188406,0.00466666666667
2160,0.0125,0.00108695652174,0.002
2210,0.0333333333333,0.00289855072464,0.00533333333333
2260,0.0166666666667,0.00144927536232,0.00266666666667
2310,0.00833333333333,0.000724637681159,0.00133333333333
2360,0.00416666666667,0.00036231884058,0.000666666666667
2410,0.025,0.00217391304348,0.004
2460,0.0208333333333,0.0018115942029,0.00333333333333
2510,0.0416666666667,0.0036231884058,0.00666666666667
2560,0.0333333333333,0.00289855072464,0.00533333333333
2610,0.0291666666667,0.00253623188406,0.00466666666667
2660,0.0166666666667,0.00144927536232,0.00266666666667
2710,0.0208333333333,0.0018115942029,0.00333333333333
2760,0.00833333333333,0.000724637681159,0.00133333333333
2810,0.00416666666667,0.00036231884058,0.000666666666667
2860,0.0125,0.00108695652174,0.002
2910,0.0,0.0,0.0
2960,0.00416666666667,0.00036231884058,0.000666666666667
3010,0.00833333333333,0.000724637681159,0.00133333333333
3060,0.0166666666667,0.00144927536232,0.00266666666667
3110,0.0208333333333,0.0018115942029,0.00333333333333
3160,0.025,0.00217391304348,0.004
3210,0.00833333333333,0.000724637681159,0.00133333333333
3260,0.00833333333333,0.000724637681159,0.00133333333333
3310,0.0166666666667,0.00144927536232,0.00266666666667
3360,0.025,0.00217391304348,0.004
3410,0.0125,0.00108695652174,0.002
3460,0.00833333333333,0.000724637681159,0.00133333333333
3510,0.00833333333333,0.000724637681159,0.00133333333333
3560,0.0,0.0,0.0
3610,0.00416666666667,0.00036231884058,0.000666666666667
3660,0.00416666666667,0.00036231884058,0.000666666666667
3710,0.0,0.0,0.0
3760,0.00416666666667,0.00036231884058,0.000666666666667
3810,0.00833333333333,0.000724637681159,0.00133333333333
3860,0.0208333333333,0.0018115942029,0.00333333333333
3910,0.00416666666667,0.00036231884058,0.000666666666667
3960,0.00416666666667,0.00036231884058,0.000666666666667
4010,0.0166666666667,0.00144927536232,0.00266666666667
4060,0.00416666666667,0.00036231884058,0.000666666666667
4110,0.00416666666667,0.00036231884058,0.000666666666667
4160,0.0,0.0,0.0
4210,0.00833333333333,0.000724637681159,0.00133333333333
4260,0.00416666666667,0.00036231884058,0.000666666666667
4310,0.0125,0.00108695652174,0.002
4360,0.00833333333333,0.000724637681159,0.00133333333333
4410,0.0,0.0,0.0
4460,0.0,0.0,0.0
4510,0.0,0.0,0.0
4560,0.00416666666667,0.00036231884058,0.000666666666667
4610,0.00416666666667,0.00036231884058,0.000666666666667
4660,0.0,0.0,0.0
4710,0.00416666666667,0.00036231884058,0.000666666666667
4760,0.00416666666667,0.00036231884058,0.000666666666667
4810,0.00416666666667,0.00036231884058,0.000666666666667
4860,0.0125,0.00108695652174,0.002
4910,0.00416666666667,0.00036231884058,0.000666666666667
4960,0.0,0.0,0.0
