CV(c),c
-255.119124,0.010000
-255.119124,0.020000
-255.119124,0.030000
-255.119124,0.040000
-255.119124,0.050000
-258.013534,0.060000
-257.945609,0.070000
-255.027262,0.080000
-252.570617,0.090000
-253.037402,0.100000
-236.278709,0.110000
-227.543417,0.120000
-199.257129,0.130000
-193.282609,0.140000
-179.032576,0.150000
-179.003616,0.160000
-168.143745,0.170000
-163.041141,0.180000
-163.041141,0.190000
-163.039930,0.200000
-163.039930,0.210000
-163.039930,0.220000
-163.039930,0.230000
-163.039930,0.240000
-160.803105,0.250000
-161.464111,0.260000
-159.328058,0.270000
-159.660622,0.280000
-159.714531,0.290000
-156.728929,0.300000
-153.872104,0.310000
-154.554662,0.320000
-143.662847,0.330000
-140.703047,0.340000
-135.163373,0.350000
-134.885888,0.360000
-131.995471,0.370000
-117.923716,0.380000
-109.343646,0.390000
-109.343646,0.400000
-109.343646,0.410000
-106.385920,0.420000
-106.508367,0.430000
-98.071812,0.440000
-98.058064,0.450000
-98.847983,0.460000
-98.961752,0.470000
-99.068105,0.480000
-99.316257,0.490000
-90.700840,0.500000
-87.988047,0.510000
-88.179540,0.520000
-88.262393,0.530000
-83.134701,0.540000
-80.635296,0.550000
-80.927298,0.560000
-80.927298,0.570000
-75.442936,0.580000
-69.787757,0.590000
-69.787757,0.600000
-67.196547,0.610000
-67.196547,0.620000
-67.069897,0.630000
-64.127632,0.640000
-64.127632,0.650000
-64.127632,0.660000
-64.033829,0.670000
-64.033829,0.680000
-64.033829,0.690000
-64.033829,0.700000
-64.033829,0.710000
-64.141610,0.720000
-64.141610,0.730000
-64.141610,0.740000
-64.141610,0.750000
-64.141610,0.760000
-64.141610,0.770000
-64.141610,0.780000
-64.141610,0.790000
-64.141610,0.800000
-64.141610,0.810000
-64.141610,0.820000
-64.141610,0.830000
-64.141610,0.840000
-64.141610,0.850000
-64.141610,0.860000
-64.141610,0.870000
-64.141610,0.880000
-64.141610,0.890000
-64.141610,0.900000
-64.121587,0.910000
-64.121587,0.920000
-64.121587,0.930000
-64.082209,0.940000
-64.082209,0.950000
-64.082209,0.960000
-63.963692,0.970000
-63.982104,0.980000
-63.982104,0.990000
-63.982104,1.000000
-63.982104,1.010000
-63.982104,1.020000
-63.982104,1.030000
-63.982104,1.040000
-63.829666,1.050000
-63.829666,1.060000
-60.836592,1.070000
-60.666383,1.080000
-60.666383,1.090000
-60.666383,1.100000
-60.666383,1.110000
-60.666383,1.120000
-60.666383,1.130000
-60.666383,1.140000
-60.666383,1.150000
-60.666383,1.160000
-60.666383,1.170000
-60.666383,1.180000
-60.666383,1.190000
-60.666383,1.200000
-60.666383,1.210000
-60.666383,1.220000
-60.666383,1.230000
-60.666383,1.240000
-60.888004,1.250000
-60.888004,1.260000
-60.422704,1.270000
-60.422704,1.280000
-60.422704,1.290000
-60.723190,1.300000
-60.723190,1.310000
-60.723190,1.320000
-60.723190,1.330000
-60.895109,1.340000
-61.205951,1.350000
-61.358840,1.360000
-61.613115,1.370000
-61.749345,1.380000
-61.749345,1.390000
-62.206413,1.400000
-62.206413,1.410000
-62.206413,1.420000
-62.206413,1.430000
-62.335205,1.440000
-62.335205,1.450000
-62.335205,1.460000
-62.335205,1.470000
-62.335205,1.480000
-62.335205,1.490000
-62.497055,1.500000
-62.497055,1.510000
-62.548191,1.520000
-62.548191,1.530000
-62.548191,1.540000
-62.548191,1.550000
-62.548191,1.560000
-62.548191,1.570000
-62.688632,1.580000
-62.688632,1.590000
-62.705502,1.600000
-62.790846,1.610000
-62.663258,1.620000
-62.721778,1.630000
-60.036638,1.640000
-60.036638,1.650000
-60.334527,1.660000
-60.334527,1.670000
-60.423737,1.680000
-60.423737,1.690000
-58.124703,1.700000
-58.042322,1.710000
-58.118407,1.720000
-58.148853,1.730000
-58.148853,1.740000
-58.148853,1.750000
-58.580131,1.760000
-58.580131,1.770000
-58.580131,1.780000
-58.580131,1.790000
-58.983125,1.800000
-58.983125,1.810000
-58.880017,1.820000
-58.804170,1.830000
-58.804170,1.840000
-53.046414,1.850000
-47.416020,1.860000
-47.345994,1.870000
-47.345994,1.880000
-47.345994,1.890000
-47.345994,1.900000
-47.585866,1.910000
-47.585866,1.920000
-47.585866,1.930000
-47.585866,1.940000
-47.585866,1.950000
-47.741933,1.960000
-47.741933,1.970000
-47.741933,1.980000
-47.741933,1.990000
-48.008502,2.000000
-48.008502,2.010000
-48.008502,2.020000
-48.008502,2.030000
-48.008502,2.040000
-48.022348,2.050000
-48.022348,2.060000
-47.363694,2.070000
-47.363694,2.080000
-47.363694,2.090000
-47.363694,2.100000
-47.363694,2.110000
-47.363694,2.120000
-47.363694,2.130000
-47.363694,2.140000
-47.363694,2.150000
-47.363694,2.160000
-47.363694,2.170000
-47.363694,2.180000
-47.363694,2.190000
-47.363694,2.200000
-47.363694,2.210000
-47.363694,2.220000
-47.363694,2.230000
-47.363694,2.240000
-47.363694,2.250000
-47.363694,2.260000
-47.363694,2.270000
-47.363694,2.280000
-47.363694,2.290000
-47.363694,2.300000
-47.363694,2.310000
-47.363694,2.320000
-47.363694,2.330000
-47.363694,2.340000
-47.363694,2.350000
-47.363694,2.360000
-47.363694,2.370000
-47.363694,2.380000
-47.363694,2.390000
-47.363694,2.400000
-47.363694,2.410000
-47.363694,2.420000
-47.363694,2.430000
-47.363694,2.440000
-47.363694,2.450000
-47.363694,2.460000
-47.363694,2.470000
-47.363694,2.480000
-47.363694,2.490000
-47.363694,2.500000
-47.363694,2.510000
-47.363694,2.520000
-47.363694,2.530000
-47.363694,2.540000
-47.363694,2.550000
-47.363694,2.560000
-47.363694,2.570000
-47.363694,2.580000
-47.363694,2.590000
-47.363694,2.600000
-47.363694,2.610000
-47.363694,2.620000
-47.363694,2.630000
-47.363694,2.640000
-47.363694,2.650000
-47.363694,2.660000
-47.363694,2.670000
-47.363694,2.680000
-47.363694,2.690000
-47.363694,2.700000
-47.363694,2.710000
-47.363694,2.720000
-47.363694,2.730000
-47.363694,2.740000
-47.363694,2.750000
-47.363694,2.760000
-47.363694,2.770000
-47.363694,2.780000
-47.363694,2.790000
-47.363694,2.800000
-47.363694,2.810000
-47.363694,2.820000
-47.363694,2.830000
-47.363694,2.840000
-47.363694,2.850000
-47.363694,2.860000
-47.363694,2.870000
-47.363694,2.880000
-47.363694,2.890000
-47.363694,2.900000
-47.363694,2.910000
-47.363694,2.920000
-47.363694,2.930000
-47.363694,2.940000
-47.363694,2.950000
-47.363694,2.960000
-47.363694,2.970000
-47.363694,2.980000
-47.363694,2.990000
-47.363694,3.000000
-47.363694,3.010000
-47.363694,3.020000
-47.363694,3.030000
-47.363694,3.040000
-47.363694,3.050000
-47.363694,3.060000
-47.363694,3.070000
-47.363694,3.080000
-47.363694,3.090000
-47.363694,3.100000
-47.363694,3.110000
-47.363694,3.120000
-47.363694,3.130000
-47.363694,3.140000
-47.363694,3.150000
-47.363694,3.160000
-47.363694,3.170000
-47.363694,3.180000
-47.363694,3.190000
-47.363694,3.200000
-47.363694,3.210000
-47.363694,3.220000
-47.363694,3.230000
-47.363694,3.240000
-47.363694,3.250000
-47.363694,3.260000
-47.363694,3.270000
-47.363694,3.280000
-47.363694,3.290000
-47.363694,3.300000
-47.363694,3.310000
-47.363694,3.320000
-47.363694,3.330000
-47.363694,3.340000
-47.363694,3.350000
-47.363694,3.360000
-47.363694,3.370000
-47.363694,3.380000
-47.363694,3.390000
-47.363694,3.400000
-47.363694,3.410000
-47.363694,3.420000
-47.363694,3.430000
-47.363694,3.440000
-47.363694,3.450000
-47.363694,3.460000
-47.363694,3.470000
-47.363694,3.480000
-47.363694,3.490000
-47.363694,3.500000
-47.363694,3.510000
-47.363694,3.520000
-47.363694,3.530000
-47.363694,3.540000
-47.363694,3.550000
-47.363694,3.560000
-47.363694,3.570000
-47.363694,3.580000
-47.363694,3.590000
-47.363694,3.600000
-47.363694,3.610000
-47.363694,3.620000
-47.363694,3.630000
-47.363694,3.640000
-47.363694,3.650000
-47.363694,3.660000
-47.363694,3.670000
-47.363694,3.680000
-47.363694,3.690000
-47.363694,3.700000
-47.363694,3.710000
-47.363694,3.720000
-47.363694,3.730000
-47.363694,3.740000
-47.363694,3.750000
-47.363694,3.760000
-47.363694,3.770000
-47.363694,3.780000
-47.363694,3.790000
-47.363694,3.800000
-47.363694,3.810000
-47.363694,3.820000
-47.363694,3.830000
-47.363694,3.840000
-47.363694,3.850000
-47.363694,3.860000
-47.363694,3.870000
-47.363694,3.880000
-47.363694,3.890000
-47.363694,3.900000
-47.363694,3.910000
-47.363694,3.920000
-47.363694,3.930000
-47.363694,3.940000
-47.363694,3.950000
-47.363694,3.960000
-47.363694,3.970000
-47.363694,3.980000
-47.363694,3.990000
-47.363694,4.000000
-47.363694,4.010000
-47.363694,4.020000
-47.363694,4.030000
-47.363694,4.040000
-47.363694,4.050000
-47.363694,4.060000
-47.363694,4.070000
-47.363694,4.080000
-47.363694,4.090000
-47.363694,4.100000
-47.363694,4.110000
-47.363694,4.120000
-47.363694,4.130000
-47.363694,4.140000
-47.363694,4.150000
-47.363694,4.160000
-47.363694,4.170000
-47.363694,4.180000
-47.363694,4.190000
-47.363694,4.200000
-47.363694,4.210000
-47.363694,4.220000
-47.363694,4.230000
-47.363694,4.240000
-47.363694,4.250000
-47.363694,4.260000
-47.363694,4.270000
-47.363694,4.280000
-47.363694,4.290000
-47.363694,4.300000
-47.363694,4.310000
-47.363694,4.320000
-47.363694,4.330000
-47.363694,4.340000
-47.363694,4.350000
-47.363694,4.360000
-47.363694,4.370000
-47.363694,4.380000
-47.363694,4.390000
-47.363694,4.400000
-47.363694,4.410000
-47.363694,4.420000
-47.363694,4.430000
-47.363694,4.440000
-47.363694,4.450000
-47.363694,4.460000
-47.363694,4.470000
-47.363694,4.480000
-47.363694,4.490000
-47.363694,4.500000
-47.363694,4.510000
-47.363694,4.520000
-47.363694,4.530000
-47.363694,4.540000
-47.363694,4.550000
-47.363694,4.560000
-47.363694,4.570000
-47.363694,4.580000
-47.363694,4.590000
-47.363694,4.600000
-47.363694,4.610000
-47.363694,4.620000
-47.363694,4.630000
-47.363694,4.640000
-47.363694,4.650000
-47.363694,4.660000
-47.363694,4.670000
-47.363694,4.680000
-47.363694,4.690000
-47.363694,4.700000
-47.363694,4.710000
-47.363694,4.720000
-47.363694,4.730000
-47.363694,4.740000
-47.363694,4.750000
-47.363694,4.760000
-47.363694,4.770000
-47.363694,4.780000
-47.363694,4.790000
-47.363694,4.800000
-47.363694,4.810000
-47.363694,4.820000
-47.363694,4.830000
-47.363694,4.840000
-47.363694,4.850000
-47.363694,4.860000
-47.363694,4.870000
-47.363694,4.880000
-47.363694,4.890000
-47.363694,4.900000
-47.363694,4.910000
-47.363694,4.920000
-47.363694,4.930000
-47.363694,4.940000
-47.363694,4.950000
-47.363694,4.960000
-47.363694,4.970000
-47.363694,4.980000
-47.363694,4.990000
-47.363694,5.000000
